EU-voter-preferences
…
table(ess$religion)

## 
##        Islamic         Jewish          Other     Protestant Roman Catholic 
##            441             19            579           2826           9210

Including an Other category, there are 5 major religions. Lets now examine which religious groups across Europe are more opposed to the EU as an institution.

leave_vote <- ess %>%
  filter(leave == "yes")

leave_vote

## # A tibble: 2,308 x 20
##    leave country_code gender   age years_education news_consumption trust_people
##    <fct> <chr>        <chr>  <dbl>           <dbl>            <dbl>        <dbl>
##  1 yes   AT           Male      50              12               15            6
##  2 yes   AT           Male      45              12               35            9
##  3 yes   AT           Female    55              13               90            6
##  4 yes   AT           Male      18              12               10            6
##  5 yes   AT           Female    59              11               30            7
##  6 yes   AT           Female    23              13               30            5
##  7 yes   AT           Male      38              11              360           10
##  8 yes   AT           Female    21              12                0           10
##  9 yes   AT           Female    49              15              120            2
## 10 yes   AT           Female    58               8               30            3
## #  with 2,298 more rows, and 13 more variables: trust_politicians <dbl>,
## #   past_vote <chr>, immig_econ <dbl>, immig_culture <dbl>,
## #   country_attach <dbl>, religion <chr>, climate_change <dbl>,
## #   imp_tradition <dbl>, imp_equality <dbl>, income <dbl>,
## #   eu_integration <dbl>, trade_union <fct>, unemployed <fct>
…
Generally Muslims and Jews are more supportive of the EU, whilst Roman Catholics are more opposed. Lets look at voting preferences within a religious segmentation. To do this we have to create a bucket that contains the values for all Muslims who particpated in the survey. We use the pipe operator to do this,

Islamic_view <- ess %>%
  filter(religion == "Islamic") 

Islamic_view

## # A tibble: 441 x 20
##    leave country_code gender   age years_education news_consumption trust_people
##    <fct> <chr>        <chr>  <dbl>           <dbl>            <dbl>        <dbl>
##  1 no    AT           Female    20              13               30            5
##  2 no    AT           Male      35              18               60            3
##  3 no    AT           Female    25              12               15            9
##  4 no    AT           Male      63               8               90            2
##  5 no    AT           Male      34              13                0           10
##  6 no    AT           Female    18              10               30            6
##  7 no    AT           Male      28              12               30            0
##  8 no    AT           Female    31              11               60            3
##  9 no    AT           Female    16              10               10            3
## 10 no    AT           Female    57              14               30            5
## #  with 431 more rows, and 13 more variables: trust_politicians <dbl>,
## #   past_vote <chr>, immig_econ <dbl>, immig_culture <dbl>,
## #   country_attach <dbl>, religion <chr>, climate_change <dbl>,
## #   imp_tradition <dbl>, imp_equality <dbl>, income <dbl>,
## #   eu_integration <dbl>, trade_union <fct>, unemployed <fct>
…
We are going to do exactly the same process as did above for the Catholic segementation.

Catholic_view <- ess %>%
  filter(religion == "Roman Catholic") 

Catholic_view

## # A tibble: 9,210 x 20
##    leave country_code gender   age years_education news_consumption trust_people
##    <fct> <chr>        <chr>  <dbl>           <dbl>            <dbl>        <dbl>
##  1 no    AT           Female    68              13               30            5
##  2 no    AT           Female    65              13               60            3
##  3 no    AT           Female    44              17               45            7
##  4 no    AT           Female    41              16               60            5
##  5 no    AT           Female    57               9               30            2
##  6 yes   AT           Male      50              12               15            6
##  7 no    AT           Female    58               4               20            1
##  8 no    AT           Male      51              12               30            6
##  9 no    AT           Male      47              20               60            7
## 10 yes   AT           Male      45              12               35            9
## #  with 9,200 more rows, and 13 more variables: trust_politicians <dbl>,
## #   past_vote <chr>, immig_econ <dbl>, immig_culture <dbl>,
## #   country_attach <dbl>, religion <chr>, climate_change <dbl>,
## #   imp_tradition <dbl>, imp_equality <dbl>, income <dbl>,
## #   eu_integration <dbl>, trade_union <fct>, unemployed <fct>
…
